{
	"sun_moon": {
		"states":[
			"DisableDepthWrite",
			"Blending"],

		"blendSrc": "SourceAlpha",
		"blendDst": "One",

		"vertexShader" : "shaders/sun_moon.vsh",
		"fragmentShader" : "shaders/sun_moon.fsh"
	},

	"stars": {
		"states":[
			"DisableDepthWrite", 
			"Blending"],

		"blendSrc": "OneMinusDestColor",
		"blendDst": "One",

		"vertexShader" : "shaders/stars.vsh",
		"fragmentShader" : "shaders/stars.fsh"
	},

	"skyplane": {
		"states":[ "DisableDepthWrite" ],

		"vertexShader" : "shaders/skyplane.vsh",
		"fragmentShader" : "shaders/color.fragment"
	}
}
